{
  "votes": [
    {
      "_from": "users/7b33e4fc-1a41-4661-a4d9-563fc21cd89e",
      "_to": "polls/11630",
      "option_id": "0"
    },
    {
      "_from": "users/0d50fcd3-eed6-4774-8ac0-42c0c2b72b0d",
      "_to": "polls/11630",
      "option_id": "0"
    },
    {
      "_from": "users/0d50fcd3-eed6-4774-8ac0-41c0c2b72b0d",
      "_to": "polls/11630",
      "option_id": "1"
    }
  ]
}
