{
    "request": {
        "title": "[GET] Topic Questions",
        "description": "returns the questions belonging to a certain topic",
        "url": "/api/v1/questions/view?topic_id=topic_id_val&page_number=page_number_val",
        "method": "GET"
    },
    "response": {
        "status_code": "Number",
        "body": {
            "questions": [
                {
                    "question_id": "String",
                    "user_id": "String",
                    "poll_id": "String",
                    "title": "String",
                    "body": "String",
                    "upvotes": "Number",
                    "subscribers": "Number",
                    "created_at": "Datetime",
                    "updated_at": "Datetime",
                    "media": ["String"]
                }
            ]
        }
    }
}