{
    "request": {
        "title": "[POST] post answer to a question",
        "description": "posts an answer to an a question with :id",
        "url": "/api/v1/question/:id/answer",
        "body": {
            "text": "String",
            "is_public": "Boolean"
        },
        "method": "POST"
    },
    "response": {
        "status_code": "Number"
    }
}
  