{
    "request": {
        "title": "[PUT] member to group chat",
        "description": "modify member list by adding a member to certain group chat with id :id",
        "url": "/api/v1/chat/groupchat/:id",
        "method": "PUT",
        "body": {
          "username": "String"
        }
    },
    "response": {
        "status_code": "Number",
        "body": {
            "message": "String"
        }
    }
  }
  