{
  "request": {
    "title": "[DELETE] delete topic question",
    "description": " delete a certain topic from a question",
    "url": "/api/v1/questions/deleteTopicQuestion",
    "method": "DELETE",
    "body": {
      "topic_id" : "String",
      "question_id" : "String"
    }
  },
  "response": {
    "status_code": "Number",
    "body":{
      "message": "String"
    }
  }
}
