{
  "request": {
    "title": "[UPDATE] moderator merges questions ",
    "description": "moderator merges two questions' answers using their Ids ",
    "url": "/api/v1/moderators/mergeQuestions",
    "method": "UPDATE"
  },
  "response": {
    "status_code": "Number",
    "body": {
      "message": "String"
    }
  }
}
